Capítulo 5 Prophet | Series de Tiempo - Predicción de Precios de Frutas y Verduras en Nepal
…
## Warning: package 'Rcpp' was built under R version 4.3.3

pot_weekly_tsbl <- potatored %>%
  mutate(Week = yearweek(Date)) %>%     
  group_by(Week) %>%
  summarise(
    Precio = mean(Average, na.rm = TRUE),       
    .groups = "drop"
  ) %>%
  as_tsibble(index = Week)

# Vista rapida de la serie semanal
pot_weekly_tsbl

## # A tsibble: 414 x 2 [1W]
##        Week Precio
##      <week>  <dbl>
##  1 2013 W24   20.5
##  2 2013 W25   20.5
##  3 2013 W26   23.3
##  4 2013 W27   23.1
##  5 2013 W28   23.6
##  6 2013 W29   23.7
##  7 2013 W30   23.5
##  8 2013 W31   24.2
##  9 2013 W32   26.4
## 10 2013 W33   27.7
## # ℹ 404 more rows
…
